Case #1: 790.7185804
Case #2: 875.1096456
Case #3: 125.6106740
Case #4: 103.5000000
Case #5: 788.7588306
Case #6: 828.1540620
Case #7: 312.5000000
Case #8: 866.6675479
Case #9: 883.6598113
Case #10: 306.5324717
Case #11: 430.6796176
Case #12: 39.5000000
Case #13: 22.1917500
Case #14: 145.5000000
Case #15: 296.3986528
Case #16: 802.6302981
Case #17: 246.0000000
Case #18: 4.7627947
Case #19: 344.0000000
Case #20: 234.2000000
Case #21: 2.9980330
Case #22: 559.0000000
Case #23: 808.2041550
Case #24: 304.9935457
Case #25: 455.8363852
Case #26: 177.6780177
Case #27: 868.7365108
Case #28: 49.9920500
Case #29: 773.5722970
Case #30: 838.3350209
Case #31: 225.7246224
Case #32: 621.8333333
Case #33: 209.0000000
Case #34: 825.3551277
Case #35: 229.0000000
Case #36: 458.4436745
Case #37: 140.9491523
Case #38: 818.8866102
Case #39: 805.5944550
Case #40: 834.9491552
Case #41: 781.5416235
Case #42: 885.6309412
Case #43: 388.9396825
Case #44: 824.3143545
Case #45: 783.8257115
Case #46: 501.8880570
Case #47: 830.1188413
Case #48: 179.0093000
Case #49: 347.7029939
Case #50: 2.9102375
Case #51: 847.0971032
Case #52: 386.3412529
Case #53: 71.0358600
Case #54: 393.0000000
Case #55: 642.5963808
Case #56: 263.0894363
Case #57: 872.1055684
Case #58: 2.7163507
Case #59: 77.3466181
Case #60: 240.4654091
Case #61: 566.8912556
Case #62: 199.0000000
Case #63: 117.1305600
Case #64: 1.0126331
Case #65: 60.0000000
Case #66: 574.2687260
Case #67: 800.0285222
Case #68: 404.7500000
Case #69: 454.1983707
Case #70: 865.7276404
Case #71: 802.3859151
Case #72: 11.5196150
Case #73: 280.0000000
Case #74: 546.4733008
Case #75: 873.7346079
Case #76: 274.1844269
Case #77: 40.6108178
Case #78: 84.6738350
Case #79: 643.4046512
Case #80: 449.2509798
Case #81: 250.3000000
Case #82: 111.5785681
Case #83: 816.9363159
Case #84: 198.2430333
Case #85: 3.3811692
Case #86: 172.1924353
Case #87: 881.3147632
Case #88: 783.4333534
Case #89: 102.5007305
Case #90: 899.0289794
Case #91: 27.5139700
Case #92: 851.1864621
Case #93: 127.7258368
Case #94: 858.7227152
Case #95: 840.6247897
Case #96: 0.5000000
Case #97: 856.3677806
Case #98: 865.3570138
Case #99: 500.3384572
Case #100: 43.5000000
